# 3ds Max Wavefront OBJ Exporter v0.97b - (c)2007 guruware
# File Created: 11.01.2019 22:46:49

newmtl wire_141007058
	Ns 32
	d 1
	Tr 0
	Tf 1 1 1
	illum 2
	Ka 0.5529 0.0275 0.2275
	Kd 0.5529 0.0275 0.2275
	Ks 0.3500 0.3500 0.3500

newmtl wire_148177027
	Ns 32
	d 1
	Tr 0
	Tf 1 1 1
	illum 2
	Ka 0.5804 0.6941 0.1059
	Kd 0.5804 0.6941 0.1059
	Ks 0.3500 0.3500 0.3500

newmtl wire_008110135
	Ns 32
	d 1
	Tr 0
	Tf 1 1 1
	illum 2
	Ka 0.0314 0.4314 0.5294
	Kd 0.0314 0.4314 0.5294
	Ks 0.3500 0.3500 0.3500

newmtl wire_214229166
	Ns 32
	d 1
	Tr 0
	Tf 1 1 1
	illum 2
	Ka 0.8392 0.8980 0.6510
	Kd 0.8392 0.8980 0.6510
	Ks 0.3500 0.3500 0.3500
